[{
    "CYCLE": 1,
    "PTP_AMOUNT": 399.15,
    "CARD_TYPE": "Multi Card"
  },
  {
    "CYCLE": 2,
    "PTP_AMOUNT": 542,
    "CARD_TYPE": "Multi Card"
  },
  {
    "CYCLE": 3,
    "PTP_AMOUNT": 0,
    "CARD_TYPE": "Multi Card"
  },
  {
    "CYCLE": 4,
    "PTP_AMOUNT": 100,
    "CARD_TYPE": "Multi Card"
  },
  {
    "CYCLE": 5,
    "PTP_AMOUNT": 0,
    "CARD_TYPE": "Multi Card"
  },
  {
    "CYCLE": 6,
    "PTP_AMOUNT": 0,
    "CARD_TYPE": "Multi Card"
  }
]
